…
    ## [1] 2595176       7

``` r
 ny_noaa |>
  group_by(id) |> 
  summarize(
    n_obs = n())|> 
  arrange(n_obs)
```

    ## # A tibble: 747 × 2
    ##    id          n_obs
    ##    <chr>       <int>
    ##  1 US1NYCN0011    30
    ##  2 US1NYES0005    30
    ##  3 US1NYSF0030    30
    ##  4 US1NYDT0007    31
    ##  5 US1NYSF0049    31
    ##  6 US1NYST0033    31
    ##  7 US1NYWC0009    31
    ##  8 USC00306411    31
    ##  9 USC00303076    59
    ## 10 USC00304525    59
    ## # ℹ 737 more rows
…
